{
  "url": "FULL URL",
  "user": "USER NAME",
  "password": "PASSWORD",
  "perHour": 100,
  "currency": "Kč",
  "workingDaysPerWeek": 5,
  "workDaysInMonthCmd": "czech-work-days-hs %YEAR% %MONTH%",
  "extractorCmd": "redmine-extractor --user %USER% --url http://my-redmine.com"
}
