{
  "leave": [
    {
      "month": 10,
      "year": 2018,
      "days": 100
    },
    {
      "month": 9,
      "year": 2018,
      "days": 2
    }
  ],
  "sick": [
    {
      "month": 11,
      "year": 2018,
      "days": 5
    }
  ],
  "extra": [
    {
      "month": 10,
      "year": 2018,
      "hours": 7.5
    }
  ]
}
